…
Take a look inside your dataset

``` r
listings
```

    ## # A tibble: 31,536 x 16
    ##       id name  host_id host_name neighbourhood_g… neighbourhood latitude
    ##    <dbl> <chr>   <dbl> <chr>     <chr>            <chr>            <dbl>
    ##  1   109 Amaz…     521 Paolo     Other Cities     Culver City       34.0
    ##  2   344 Fami…     767 Melissa   Other Cities     Burbank           34.2
    ##  3  2708 Beau…    3008 Chas.     City of Los Ang… Hollywood         34.1
    ##  4  2732 Zen …    3041 Yoga Pri… Other Cities     Santa Monica      34.0
    ##  5  2864 * Be…    3207 Bernadine Other Cities     Bellflower        33.9
    ##  6  5728 Tiny…    9171 Sanni     City of Los Ang… Del Rey           34.0
    ##  7  5729 Zen …    9171 Sanni     City of Los Ang… Del Rey           34.0
    ##  8  5843 Arti…    9171 Sanni     City of Los Ang… Del Rey           34.0
    ##  9  6931 Beau…    3008 Chas.     City of Los Ang… Hollywood         34.1
    ## 10  7874 2nd …   21700 Henry     Other Cities     Bellflower        33.9
    ## # … with 31,526 more rows, and 9 more variables: longitude <dbl>,
    ## #   room_type <chr>, price <dbl>, minimum_nights <dbl>,
    ## #   number_of_reviews <dbl>, last_review <date>, reviews_per_month <dbl>,
    ## #   calculated_host_listings_count <dbl>, availability_365 <dbl>
…
``` r
count(listings, neighbourhood) %>%
  arrange(desc(n))
```

    ## # A tibble: 263 x 2
    ##    neighbourhood       n
    ##    <chr>           <int>
    ##  1 Long Beach       1584
    ##  2 Venice           1571
    ##  3 Hollywood        1525
    ##  4 Santa Monica     1139
    ##  5 Downtown         1110
    ##  6 Hollywood Hills   721
    ##  7 West Hollywood    618
    ##  8 Glendale          560
    ##  9 Rowland Heights   521
    ## 10 Beverly Hills     511
    ## # … with 253 more rows
…
> No unusual patterns, just the one mentioned before. It is weird,
> however, that there are values of 0, because if it is never available
> then it should not be listed on Airbnb

### Part II

What is the most common name (of a person) in the city you selected

``` r
count(listings, host_name) %>%
  arrange(desc(n))
```

    ## # A tibble: 7,097 x 2
    ##    host_name      n
    ##    <chr>      <int>
    ##  1 PCHSoCal     308
    ##  2 David        287
    ##  3 Alex         244
    ##  4 Michael      228
    ##  5 Blueground   206
    ##  6 James        166
    ##  7 John         159
    ##  8 Mark         154
    ##  9 Sarah        152
    ## 10 Nicole       147
    ## # … with 7,087 more rows
…
``` r
by_neighborhood <- group_by(listings, neighbourhood) %>%
  summarize(avg_price = mean(price)) %>%
  arrange(desc(avg_price))
```

    ## `summarise()` ungrouping output (override with `.groups` argument)

``` r
by_neighborhood
```

    ## # A tibble: 263 x 2
    ##    neighbourhood                         avg_price
    ##    <chr>                                     <dbl>
    ##  1 Rolling Hills                             2668.
    ##  2 Bel-Air                                   2609.
    ##  3 Malibu                                    1639.
    ##  4 Beverly Crest                             1249.
    ##  5 Hollywood Hills West                       901.
    ##  6 Beverly Hills                              846.
    ##  7 Westlake Village                           740.
    ##  8 Unincorporated Santa Monica Mountains      706.
    ##  9 Florence-Firestone                         639.
    ## 10 Avalon                                     504.
    ## # … with 253 more rows
…
Suppose you could purchase a property in the city you selected, and that
you could rent it to others as an Airbnb. In what neighborhood would you
want to purchase your property? Why?

``` r
group_by(listings, neighbourhood) %>%
  count(neighbourhood) %>%
  arrange(desc(n))
```

    ## # A tibble: 263 x 2
    ## # Groups:   neighbourhood [263]
    ##    neighbourhood       n
    ##    <chr>           <int>
    ##  1 Long Beach       1584
    ##  2 Venice           1571
    ##  3 Hollywood        1525
    ##  4 Santa Monica     1139
    ##  5 Downtown         1110
    ##  6 Hollywood Hills   721
    ##  7 West Hollywood    618
    ##  8 Glendale          560
    ##  9 Rowland Heights   521
    ## 10 Beverly Hills     511
    ## # … with 253 more rows
…
Visit a real estate website and find a property that is for sale in the
neighborhood you selected. Take note of the price and address of the
property.

2564 Basil Ln, Los Angeles, CA, 90077. The House is $1,449,000.

Use your dataset to find what the average Airbnb price/night is in the
neighborhood you selected.

``` r
by_neighborhood
```

    ## # A tibble: 263 x 2
    ##    neighbourhood                         avg_price
    ##    <chr>                                     <dbl>
    ##  1 Rolling Hills                             2668.
    ##  2 Bel-Air                                   2609.
    ##  3 Malibu                                    1639.
    ##  4 Beverly Crest                             1249.
    ##  5 Hollywood Hills West                       901.
    ##  6 Beverly Hills                              846.
    ##  7 Westlake Village                           740.
    ##  8 Unincorporated Santa Monica Mountains      706.
    ##  9 Florence-Firestone                         639.
    ## 10 Avalon                                     504.
    ## # … with 253 more rows

> The average Airbnb price per night is $2609.46 in Bel-Air

Use your dataset to find what the average number of available nights per
year is for an Airbnb in the neighborhood you selected.

``` r
group_by(listings, neighbourhood) %>%
  summarize(avg_available = mean(availability_365)) %>%
  arrange(desc(avg_available))
```

    ## `summarise()` ungrouping output (override with `.groups` argument)

    ## # A tibble: 263 x 2
    ##    neighbourhood             avg_available
    ##    <chr>                             <dbl>
    ##  1 East Compton                       361 
    ##  2 Whittier Narrows                   346 
    ##  3 Griffith Park                      342.
    ##  4 Watts                              329.
    ##  5 Green Meadows                      322 
    ##  6 Northeast Antelope Valley          318.
    ##  7 San Fernando                       310 
    ##  8 Desert View Highlands              306.
    ##  9 Avalon                             298.
    ## 10 Sepulveda Basin                    297 
    ## # … with 253 more rows
…
