…
### Insight:

##### This bar plot displays the relative frequency of poisonous mushrooms dependent on the color of the mushrooms’ spores. I tried doing this plot with every variable in this dataset and none of them showed any correlation with whether the type of mushroom was poisonous. However, when divided by spore color, it becomes clear that spore color is the determining factor in whether mushrooms are poisonous or edible, as every color is at least 75% poisonous or edible. This plot also tells us that in general, the overwhelming majority of mushrooms are edible. Additionally, although mushrooms with chocolate, green, and white spore colors tend to be primarily poisonous, there is not a certain group of colors that suggest poison mushrooms (i.e. light or dark colors).

``` r
avocado
```

    ## # A tibble: 18,249 x 14
    ##       X1 Date       AveragePrice `Total Volume` `4046` `4225` `4770`
    ##    <dbl> <date>            <dbl>          <dbl>  <dbl>  <dbl>  <dbl>
    ##  1     0 2015-12-27         1.33         64237.  1037. 5.45e4   48.2
    ##  2     1 2015-12-20         1.35         54877.   674. 4.46e4   58.3
    ##  3     2 2015-12-13         0.93        118220.   795. 1.09e5  130. 
    ##  4     3 2015-12-06         1.08         78992.  1132  7.20e4   72.6
    ##  5     4 2015-11-29         1.28         51040.   941. 4.38e4   75.8
    ##  6     5 2015-11-22         1.26         55980.  1184. 4.81e4   43.6
    ##  7     6 2015-11-15         0.99         83454.  1369. 7.37e4   93.3
    ##  8     7 2015-11-08         0.98        109428.   704. 1.02e5   80  
    ##  9     8 2015-11-01         1.02         99811.  1022. 8.73e4   85.3
    ## 10     9 2015-10-25         1.07         74339.   842. 6.48e4  113  
    ## # … with 18,239 more rows, and 7 more variables: `Total Bags` <dbl>, `Small
    ## #   Bags` <dbl>, `Large Bags` <dbl>, `XLarge Bags` <dbl>, type <chr>,
    ## #   year <dbl>, region <chr>

``` r
mushrooms
```

    ## # A tibble: 8,124 x 23
    ##    class `cap-shape` `cap-surface` `cap-color` bruises odor  `gill-attachmen…
    ##    <chr> <chr>       <chr>         <chr>       <lgl>   <chr> <lgl>           
    ##  1 p     x           s             n           TRUE    p     FALSE           
    ##  2 e     x           s             y           TRUE    a     FALSE           
    ##  3 e     b           s             w           TRUE    l     FALSE           
    ##  4 p     x           y             w           TRUE    p     FALSE           
    ##  5 e     x           s             g           FALSE   n     FALSE           
    ##  6 e     x           y             y           TRUE    a     FALSE           
    ##  7 e     b           s             w           TRUE    a     FALSE           
    ##  8 e     b           y             w           TRUE    l     FALSE           
    ##  9 p     x           y             w           TRUE    p     FALSE           
    ## 10 e     b           s             y           TRUE    a     FALSE           
    ## # … with 8,114 more rows, and 16 more variables: `gill-spacing` <chr>,
    ## #   `gill-size` <chr>, `gill-color` <chr>, `stalk-shape` <chr>,
    ## #   `stalk-root` <chr>, `stalk-surface-above-ring` <chr>,
    ## #   `stalk-surface-below-ring` <chr>, `stalk-color-above-ring` <chr>,
    ## #   `stalk-color-below-ring` <chr>, `veil-type` <chr>, `veil-color` <chr>,
    ## #   `ring-number` <chr>, `ring-type` <chr>, sporeprintcolor <chr>,
    ## #   population <chr>, habitat <chr>
…
